Verilog/modules/utils/tb/tb_debouncer.vcd
$date
	Wed Mar 18 09:40:40 2026
$end
$version
	Icarus Verilog
$end
$timescale
	1ps
$end
$scope module tb_debouncer $end
$var wire 1 ! button_out $end
$var reg 1 " button_in $end
$var reg 1 # clk $end
$var reg 1 $ rst_n $end
$scope module dut $end
$var wire 1 " button_in $end
$var wire 1 # clk $end
$var wire 1 $ rst_n $end
$var parameter 32 % CLK_FREQ $end
$var parameter 64 & COUNTER_MAX $end
$var parameter 32 ' COUNTER_WIDTH $end
$var parameter 32 ( DEBOUNCE_TIME_MS $end
$var reg 1 ! button_out $end
$var reg 1 ) button_sync_0 $end
$var reg 1 * button_sync_1 $end
$var reg 3 + counter [2:0] $end
$upscope $end
$upscope $end
$enddefinitions $end
$comment Show the parameter values. $end
$dumpall
b101 (
b11 '
b101 &
b1111101000 %
$end
#0
$dumpvars
b0 +
0*
0)
0$
0#
0"
0!
$end
#500000000
1#
#1000000000
0#
#1500000000
1#
#2000000000
0#
1"
1$
#2200000000
0"
#2400000000
1"
#2500000000
1)
1#
#2600000000
0"
#2800000000
1"
#3000000000
0#
#3500000000
1*
1#
#4000000000
0#
#4500000000
b1 +
1#
#5000000000
0#
#5500000000
b10 +
1#
#6000000000
0#
#6500000000
b11 +
1#
#7000000000
0#
#7500000000
b100 +
1#
#8000000000
0#
#8500000000
b101 +
1#
#9000000000
0#
#9500000000
1!
b0 +
1#
#10000000000
0#
#10500000000
1#
#11000000000
0#
#11500000000
1#
#12000000000
0#
#12500000000
1#
#13000000000
0#
#13500000000
1#
#14000000000
0#
#14500000000
1#
#15000000000
0#
#15500000000
1#
#16000000000
0#
#16500000000
1#
#17000000000
0#
#17500000000
1#
#17800000000
0"
#18000000000
1"
0#
#18200000000
0"
#18400000000
1"
#18500000000
1#
#18600000000
0"
#19000000000
0#
#19500000000
0)
1#
#20000000000
0#
#20500000000
0*
1#
#21000000000
0#
#21500000000
b1 +
1#
#22000000000
0#
#22500000000
b10 +
1#
#23000000000
0#
#23500000000
b11 +
1#
#24000000000
0#
#24500000000
b100 +
1#
#25000000000
0#
#25500000000
b101 +
1#
#26000000000
0#
#26500000000
0!
b0 +
1#
#27000000000
0#
#27500000000
1#
#28000000000
0#
#28500000000
1#
#28600000000
1"
#29000000000
0#
#29500000000
1)
1#
#30000000000
0#
#30500000000
1*
1#
#31000000000
0#
#31500000000
b1 +
1#
#32000000000
0#
#32500000000
b10 +
1#
#33000000000
0#
#33500000000
b11 +
1#
#34000000000
0#
#34500000000
b100 +
1#
#35000000000
0#
#35500000000
b101 +
1#
#36000000000
0#
#36500000000
1!
b0 +
1#
#36600000000
0"
#37000000000
0#
#37500000000
0)
1#
#38000000000
0#
#38500000000
0*
1#
#39000000000
0#
#39500000000
b1 +
1#
#40000000000
0#
#40500000000
b10 +
1#
#41000000000
0#
#41500000000
b11 +
1#
#42000000000
0#
#42500000000
b100 +
1#
#43000000000
0#
#43500000000
b101 +
1#
#44000000000
0#
#44500000000
0!
b0 +
1#
#44600000000
1"
#45000000000
0#
#45500000000
1)
1#
#46000000000
0#
#46500000000
1*
1#
#47000000000
0#
#47500000000
b1 +
1#
#48000000000
0#
#48500000000
b10 +
1#
#49000000000
0#
#49500000000
b11 +
1#
#50000000000
0#
#50500000000
b100 +
1#
#51000000000
0#
#51500000000
b101 +
1#
#52000000000
0#
#52500000000
1!
b0 +
1#
#52600000000
0"
#53000000000
0#
#53500000000
0)
1#
#54000000000
0#
#54500000000
0*
1#
#55000000000
0#
#55500000000
b1 +
1#
#56000000000
0#
#56500000000
b10 +
1#
#57000000000
0#
#57500000000
b11 +
1#
#58000000000
0#
#58500000000
b100 +
1#
#59000000000
0#
#59500000000
b101 +
1#
#60000000000
0#
#60500000000
0!
b0 +
1#
#60600000000
1"
#61000000000
0#
#61500000000
1)
1#
#62000000000
0#
#62500000000
1*
1#
#63000000000
0#
#63500000000
b1 +
1#
#64000000000
0#
#64500000000
b10 +
1#
#65000000000
0#
#65500000000
b11 +
1#
#66000000000
0#
#66500000000
b100 +
1#
#67000000000
0#
#67500000000
b101 +
1#
#68000000000
0#
#68500000000
1!
b0 +
1#
#68600000000
0"
#69000000000
0#
#69500000000
0)
1#
#70000000000
0#
#70500000000
0*
1#
#71000000000
0#
#71500000000
b1 +
1#
#72000000000
0#
#72500000000
b10 +
1#
#73000000000
0#
#73500000000
b11 +
1#
#74000000000
0#
#74500000000
b100 +
1#
#75000000000
0#
#75500000000
b101 +
1#
#76000000000
0#
#76500000000
0!
b0 +
1#
